<?xml version="1.0" encoding="UTF-8"?>
<kml xmlns="http://www.opengis.net/kml/2.2">
 <Document>
  <Style id="rocketStyleID">
   <LineStyle>
    <color>ff0000ff</color>
    <colorMode>normal</colorMode>
    <width>4</width>
   </LineStyle>
  </Style>
 <name>/Volumes/Storage/Research/SU-FARM/temp/SpaceportFilters/Space2015/KMLs/FrntRngeFilter.kml</name>

       <Placemark>
<name>FrntRnge</name>
       <styleUrl>#rocketStyleID</styleUrl>
       <MultiGeometry>
    <LineString>
      <altitudeMode>relativeToGround</altitudeMode>
      <coordinates>
260.52772630856066,40.48701565425968,0.0
260.52772630856066,40.48701565425968,30449.52
260.29629005356924,41.167645650017896,30449.52
260.29629005356924,41.167645650017896,0.0
260.52772630856066,40.48701565425968,0.0
260.29629005356924,41.167645650017896,0.0
260.29629005356924,41.167645650017896,30449.52
259.9183843714368,41.80626638926893,30449.52
259.9183843714368,41.80626638926893,0.0
260.29629005356924,41.167645650017896,0.0
259.9183843714368,41.80626638926893,0.0
259.9183843714368,41.80626638926893,30449.52
259.4054917350858,42.383473704008324,30449.52
259.4054917350858,42.383473704008324,0.0
259.9183843714368,41.80626638926893,0.0
259.4054917350858,42.383473704008324,0.0
259.4054917350858,42.383473704008324,30449.52
258.77319612773545,42.88172944205873,30449.52
258.77319612773545,42.88172944205873,0.0
259.4054917350858,42.383473704008324,0.0
258.77319612773545,42.88172944205873,0.0
258.77319612773545,42.88172944205873,30449.52
258.040709531458,43.28589435494904,30449.52
258.040709531458,43.28589435494904,0.0
258.77319612773545,42.88172944205873,0.0
258.040709531458,43.28589435494904,0.0
258.040709531458,43.28589435494904,30449.52
257.23028818082526,43.583688096318404,30449.52
257.23028818082526,43.583688096318404,0.0
258.040709531458,43.28589435494904,0.0
257.23028818082526,43.583688096318404,0.0
257.23028818082526,43.583688096318404,30449.52
256.3665563184834,43.76606235402622,30449.52
256.3665563184834,43.76606235402622,0.0
257.23028818082526,43.583688096318404,0.0
256.3665563184834,43.76606235402622,0.0
256.3665563184834,43.76606235402622,30449.52
255.47575800000004,43.82747577853785,30449.52
255.47575800000004,43.82747577853785,0.0
256.3665563184834,43.76606235402622,0.0
255.47575800000004,43.82747577853785,0.0
255.47575800000004,43.82747577853785,30449.52
254.5849596815167,43.76606235402622,30449.52
254.5849596815167,43.76606235402622,0.0
255.47575800000004,43.82747577853785,0.0
254.5849596815167,43.76606235402622,0.0
254.5849596815167,43.76606235402622,30449.52
253.72122781917471,43.583688096318404,30449.52
253.72122781917471,43.583688096318404,0.0
254.5849596815167,43.76606235402622,0.0
253.72122781917471,43.583688096318404,0.0
253.72122781917471,43.583688096318404,30449.52
252.91080646854198,43.28589435494904,30449.52
252.91080646854198,43.28589435494904,0.0
253.72122781917471,43.583688096318404,0.0
252.91080646854198,43.28589435494904,0.0
252.91080646854198,43.28589435494904,30449.52
252.17831987226464,42.88172944205873,30449.52
252.17831987226464,42.88172944205873,0.0
252.91080646854198,43.28589435494904,0.0
252.17831987226464,42.88172944205873,0.0
252.17831987226464,42.88172944205873,30449.52
251.5460242649142,42.383473704008324,30449.52
251.5460242649142,42.383473704008324,0.0
252.17831987226464,42.88172944205873,0.0
251.5460242649142,42.383473704008324,0.0
251.5460242649142,42.383473704008324,30449.52
251.03313162856318,41.80626638926893,30449.52
251.03313162856318,41.80626638926893,0.0
251.5460242649142,42.383473704008324,0.0
251.03313162856318,41.80626638926893,0.0
251.03313162856318,41.80626638926893,30449.52
250.65522594643085,41.167645650017896,30449.52
250.65522594643085,41.167645650017896,0.0
251.03313162856318,41.80626638926893,0.0
250.65522594643085,41.167645650017896,0.0
250.65522594643085,41.167645650017896,30449.52
250.4237896914393,40.48701565425968,30449.52
250.4237896914393,40.48701565425968,0.0
250.65522594643085,41.167645650017896,0.0
250.4237896914393,40.48701565425968,0.0
250.4237896914393,40.48701565425968,30449.52
250.34585493708403,39.78505700000001,30449.52
250.34585493708403,39.78505700000001,0.0
250.4237896914393,40.48701565425968,0.0
250.34585493708403,39.78505700000001,0.0
250.34585493708403,39.78505700000001,30449.52
250.4237896914392,39.08309834574033,30449.52
250.4237896914392,39.08309834574033,0.0
250.34585493708403,39.78505700000001,0.0
250.4237896914392,39.08309834574033,0.0
250.4237896914392,39.08309834574033,30449.52
250.65522594643085,38.402468349982115,30449.52
250.65522594643085,38.402468349982115,0.0
250.4237896914392,39.08309834574033,0.0
250.65522594643085,38.402468349982115,0.0
250.65522594643085,38.402468349982115,30449.52
251.03313162856318,37.763847610731084,30449.52
251.03313162856318,37.763847610731084,0.0
250.65522594643085,38.402468349982115,0.0
251.03313162856318,37.763847610731084,0.0
251.03313162856318,37.763847610731084,30449.52
251.5460242649142,37.18664029599169,30449.52
251.5460242649142,37.18664029599169,0.0
251.03313162856318,37.763847610731084,0.0
251.5460242649142,37.18664029599169,0.0
251.5460242649142,37.18664029599169,30449.52
252.17831987226464,36.68838455794128,30449.52
252.17831987226464,36.68838455794128,0.0
251.5460242649142,37.18664029599169,0.0
252.17831987226464,36.68838455794128,0.0
252.17831987226464,36.68838455794128,30449.52
252.91080646854198,36.284219645050975,30449.52
252.91080646854198,36.284219645050975,0.0
252.17831987226464,36.68838455794128,0.0
252.91080646854198,36.284219645050975,0.0
252.91080646854198,36.284219645050975,30449.52
253.72122781917471,35.986425903681614,30449.52
253.72122781917471,35.986425903681614,0.0
252.91080646854198,36.284219645050975,0.0
253.72122781917471,35.986425903681614,0.0
253.72122781917471,35.986425903681614,30449.52
254.5849596815167,35.80405164597379,30449.52
254.5849596815167,35.80405164597379,0.0
253.72122781917471,35.986425903681614,0.0
254.5849596815167,35.80405164597379,0.0
254.5849596815167,35.80405164597379,30449.52
255.47575800000004,35.74263822146216,30449.52
255.47575800000004,35.74263822146216,0.0
254.5849596815167,35.80405164597379,0.0
255.47575800000004,35.74263822146216,0.0
255.47575800000004,35.74263822146216,30449.52
256.3665563184834,35.80405164597379,30449.52
256.3665563184834,35.80405164597379,0.0
255.47575800000004,35.74263822146216,0.0
256.3665563184834,35.80405164597379,0.0
256.3665563184834,35.80405164597379,30449.52
257.23028818082526,35.98642590368161,30449.52
257.23028818082526,35.98642590368161,0.0
256.3665563184834,35.80405164597379,0.0
257.23028818082526,35.98642590368161,0.0
257.23028818082526,35.98642590368161,30449.52
258.040709531458,36.284219645050975,30449.52
258.040709531458,36.284219645050975,0.0
257.23028818082526,35.98642590368161,0.0
258.040709531458,36.284219645050975,0.0
258.040709531458,36.284219645050975,30449.52
258.77319612773545,36.68838455794128,30449.52
258.77319612773545,36.68838455794128,0.0
258.040709531458,36.284219645050975,0.0
258.77319612773545,36.68838455794128,0.0
258.77319612773545,36.68838455794128,30449.52
259.4054917350858,37.18664029599169,30449.52
259.4054917350858,37.18664029599169,0.0
258.77319612773545,36.68838455794128,0.0
259.4054917350858,37.18664029599169,0.0
259.4054917350858,37.18664029599169,30449.52
259.9183843714368,37.763847610731084,30449.52
259.9183843714368,37.763847610731084,0.0
259.4054917350858,37.18664029599169,0.0
259.9183843714368,37.763847610731084,0.0
259.9183843714368,37.763847610731084,30449.52
260.29629005356924,38.402468349982115,30449.52
260.29629005356924,38.402468349982115,0.0
259.9183843714368,37.763847610731084,0.0
260.29629005356924,38.402468349982115,0.0
260.29629005356924,38.402468349982115,30449.52
260.52772630856066,39.08309834574033,30449.52
260.52772630856066,39.08309834574033,0.0
260.29629005356924,38.402468349982115,0.0
260.52772630856066,39.08309834574033,0.0
260.52772630856066,39.08309834574033,30449.52
260.60566106291594,39.78505700000001,30449.52
260.60566106291594,39.78505700000001,0.0
260.52772630856066,39.08309834574033,0.0
260.60566106291594,39.78505700000001,0.0
260.60566106291594,39.78505700000001,30449.52
260.52772630856066,40.48701565425968,30449.52
260.52772630856066,40.48701565425968,0.0
260.60566106291594,39.78505700000001,0.0
      </coordinates>
    </LineString>
       </MultiGeometry>
       </Placemark>
  </Document>
</kml>