<?xml version="1.0" encoding="UTF-8"?>
<kml xmlns="http://www.opengis.net/kml/2.2">
 <Document>
  <Style id="rocketStyleID">
   <LineStyle>
    <color>ff0000ff</color>
    <colorMode>normal</colorMode>
    <width>4</width>
   </LineStyle>
  </Style>
 <name>/Volumes/Storage/Research/SU-FARM/temp/SpaceportFilters/Space2015/KMLs/KodiakOrbit120Filter.kml</name>

       <Placemark>
<name>KodiakOrbit120</name>
       <styleUrl>#rocketStyleID</styleUrl>
       <MultiGeometry>
    <LineString>
      <altitudeMode>relativeToGround</altitudeMode>
      <coordinates>
210.57334928562796,52.2269670958156,0.0
210.57334928562796,52.2269670958156,30449.52
215.682171061419,48.66497064025472,30449.52
215.682171061419,48.66497064025472,0.0
210.57334928562796,52.2269670958156,0.0
215.682171061419,48.66497064025472,0.0
215.682171061419,48.66497064025472,30449.52
220.55644909448642,45.18836983176687,30449.52
220.55644909448642,45.18836983176687,0.0
215.682171061419,48.66497064025472,0.0
220.55644909448642,45.18836983176687,0.0
220.55644909448642,45.18836983176687,30449.52
224.92410294008857,42.1061670085459,30449.52
224.92410294008857,42.1061670085459,0.0
220.55644909448642,45.18836983176687,0.0
224.92410294008857,42.1061670085459,0.0
224.92410294008857,42.1061670085459,30449.52
229.5140760590573,41.78749997179408,30449.52
229.5140760590573,41.78749997179408,0.0
224.92410294008857,42.1061670085459,0.0
229.5140760590573,41.78749997179408,0.0
229.5140760590573,41.78749997179408,30449.52
230.21626827947443,44.25682396000237,30449.52
230.21626827947443,44.25682396000237,0.0
229.5140760590573,41.78749997179408,0.0
230.21626827947443,44.25682396000237,0.0
230.21626827947443,44.25682396000237,30449.52
227.5551307113584,48.32156606330273,30449.52
227.5551307113584,48.32156606330273,0.0
230.21626827947443,44.25682396000237,0.0
227.5551307113584,48.32156606330273,0.0
227.5551307113584,48.32156606330273,30449.52
222.9653446211173,52.22576984186129,30449.52
222.9653446211173,52.22576984186129,0.0
227.5551307113584,48.32156606330273,0.0
222.9653446211173,52.22576984186129,0.0
222.9653446211173,52.22576984186129,30449.52
217.8105025046341,55.48212860434065,30449.52
217.8105025046341,55.48212860434065,0.0
222.9653446211173,52.22576984186129,0.0
217.8105025046341,55.48212860434065,0.0
217.8105025046341,55.48212860434065,30449.52
210.78469385126698,58.82774467841652,30449.52
210.78469385126698,58.82774467841652,0.0
217.8105025046341,55.48212860434065,0.0
210.78469385126698,58.82774467841652,0.0
210.78469385126698,58.82774467841652,30449.52
203.80178843151748,58.79805185038602,30449.52
203.80178843151748,58.79805185038602,0.0
210.78469385126698,58.82774467841652,0.0
203.80178843151748,58.79805185038602,0.0
203.80178843151748,58.79805185038602,30449.52
205.24206625900047,56.01026480034665,30449.52
205.24206625900047,56.01026480034665,0.0
203.80178843151748,58.79805185038602,0.0
205.24206625900047,56.01026480034665,0.0
205.24206625900047,56.01026480034665,30449.52
210.57334928562796,52.2269670958156,30449.52
210.57334928562796,52.2269670958156,0.0
205.24206625900047,56.01026480034665,0.0
      </coordinates>
    </LineString>
       </MultiGeometry>
       </Placemark>
  </Document>
</kml>