# Pulled from graph in the paper with PlotDigitizer
# seconds   m/s
0.          256.64948
5.1159263	256.64948
75.88437	2527.0752
90.63992	2479.8008
176.19992	4814.3223
220.22119	4783.4346
286.4546	7382.396
