#Fig B7. Drag Coefficient for Ring Frame Stabilizers (LH2 tanks)
# Above transition for item 2
0.226699	0.148227
0.385250	0.192238
0.410124	0.223763
0.466201	0.289251
0.483771	0.366725
0.510630	0.616008
0.541442	0.669326
0.623613	0.705857
0.807575	0.754780
0.850458	0.842005
0.861505	0.926719
0.902924	1.08652
0.921762	1.10110
0.966695	1.08671
0.974586	1.01173
1.05954	0.910357
1.18869	0.830890
1.35567	0.773308
1.63087	0.725717
1.91833	0.702357
2.56301	0.675195
3.29030	0.662790
4.96794	0.645886
